Vignette_tidyrules • tidyrules
…
We get nice and human readable rules. Now problem with C5.0 summary is, you can only read and get a feel of how your predictions made based on rules. But here comes the hard part, imagine if you want to explore further about your data and you want to dig deeper, if you want to know rules which are throwing high lift and confidence, or you may be interested in rules which covers major sub-population. If in case your model is giving too many rules then that is the hardest part to go through each and every rules and identifying best rules out of the summary.

What if we have all the rules in a tidy table format so that we could easily use them on the data. Let’s get it done using tidyRules.

# Extract rules to a tidy tibble
tr_att <- tidyRules(c5_att)

tr_att

## # A tibble: 24 x 8
##       id LHS        RHS   support confidence  lift rule_number trial_number
##    <int> <chr>      <chr>   <int>      <dbl> <dbl>       <int>        <int>
##  1     1 Environme… No        521      0.941   1.1           1            1
##  2     2 JobRole =… No        195      0.924   1.1           2            1
##  3     3 TotalWork… No       1347      0.864   1             3            1
##  4     4 JobLevel … Yes        16      0.944   5.9           4            1
##  5     5 DailyRate… Yes        13      0.933   5.8           5            1
##  6     6 Environme… Yes         9      0.909   5.6           6            1
##  7     7 Environme… Yes         9      0.909   5.6           7            1
##  8     8 JobRole =… Yes         6      0.875   5.4           8            1
##  9     9 JobRole %… Yes        14      0.875   5.4           9            1
## 10    10 Departmen… Yes        13      0.867   5.4          10            1
## # … with 14 more rows
…
# filter a rule with conditions
large_support_rule <- tr_att %>% 
  filter(RHS == "Yes") %>% 
  top_n(1, wt = support) %>% 
  pull(LHS)

# parseable rule 
parseable_rule <- parse(text = large_support_rule)

# apply filter on data frame using parseable rule
attrition %>% 
  filter(eval(parseable_rule))

## # A tibble: 57 x 31
##      Age Attrition BusinessTravel DailyRate Department DistanceFromHome
##    <int> <fct>     <fct>              <int> <fct>                 <int>
##  1    41 Yes       Travel_Rarely       1102 Sales                     1
##  2    46 No        Travel_Freque…      1211 Sales                     5
##  3    48 Yes       Travel_Rarely        626 Research_…                1
##  4    50 No        Travel_Rarely        989 Research_…                7
##  5    34 Yes       Travel_Freque…       658 Research_…                7
##  6    31 Yes       Travel_Rarely        249 Sales                     6
##  7    31 Yes       Travel_Rarely        542 Sales                    20
##  8    41 Yes       Travel_Rarely       1356 Sales                    20
##  9    37 No        Travel_Rarely        290 Research_…               21
## 10    52 No        Non-Travel           771 Sales                     2
## # … with 47 more rows, and 25 more variables: Education <ord>,
## #   EducationField <fct>, EnvironmentSatisfaction <ord>, Gender <fct>,
## #   HourlyRate <int>, JobInvolvement <ord>, JobLevel <int>, JobRole <fct>,
## #   JobSatisfaction <ord>, MaritalStatus <fct>, MonthlyIncome <int>,
## #   MonthlyRate <int>, NumCompaniesWorked <int>, OverTime <fct>,
## #   PercentSalaryHike <int>, PerformanceRating <ord>,
## #   RelationshipSatisfaction <ord>, StockOptionLevel <int>,
## #   TotalWorkingYears <int>, TrainingTimesLastYear <int>,
## #   WorkLifeBalance <ord>, YearsAtCompany <int>, YearsInCurrentRole <int>,
…
# rule extract 
rules_ames <- tidyRules(cubist_ames)

rules_ames

## # A tibble: 43 x 9
##       id LHS         RHS         support  mean   min   max  error committee
##    <int> <chr>       <chr>         <int> <dbl> <dbl> <dbl>  <dbl>     <int>
##  1     1 Overall_Qu… (-202.4965…      23  4.74  4.11  4.98 0.134          1
##  2     2 Overall_Qu… (-194.8591…     125  4.94  4.54  5.17 0.0679         1
##  3     3 Overall_Qu… (12.372018…      99  5.04  4.75  5.29 0.0649         1
##  4     4 Overall_Qu… (-47.97341…     672  5.14  4.82  5.59 0.0338         1
##  5     5 MS_SubClas… (-53.11988…     358  5.17  4.79  5.38 0.0309         1
##  6     6 MS_SubClas… (1.127729)…      85  5.17  4.80  5.54 0.0632         1
##  7     7 MS_SubClas… (10.129513…     287  5.18  4.78  5.49 0.0388         1
##  8     8 MS_SubClas… (5.675156)…     748  5.21  4.80  5.59 0.0315         1
##  9     9 MS_SubClas… (1.563904)…      26  5.23  5     5.48 0.0748         1
## 10    10 Overall_Qu… (1.075936)…      71  5.26  4.96  5.58 0.0681         1
## # … with 33 more rows
…
