Using tidyrules • tidyrules
…
Predict

The mainstay of package is the predict method of the
rulelist class. predict provides the first rule (in the
order as per the rulelist) that is applicable for a observation/row in
the test data. If a row is not covered by any rule, then
rule_nbr is missing.

predict(tidy_c5, att_valid)

## # A tibble: 728 × 3
##    row_nbr trial_nbr rule_nbr
##      <int>     <int>    <int>
##  1       1         1        8
##  2       2         1        6
##  3       3         1        6
##  4       4         1        6
##  5       5         1       NA
##  6       6         1       12
##  7       7         1       12
##  8       8         1        5
##  9       9         1       12
## 10      10         1        1
## # ℹ 718 more rows

☺☺☺ To know all rules applicable for a row, use argument
multiple = TRUE. Alternately, predict on a
ruleset always yields all rules applicable per row.

predict(tidy_c5, att_valid, multiple = TRUE)

## # A tibble: 728 × 3
##    row_nbr trial_nbr rule_nbr 
##      <int>     <int> <list>   
##  1       1         1 <int [2]>
##  2       2         1 <int [1]>
##  3       3         1 <int [1]>
##  4       4         1 <int [2]>
##  5       5         1 <int [1]>
##  6       6         1 <int [1]>
##  7       7         1 <int [1]>
##  8       8         1 <int [2]>
##  9       9         1 <int [1]>
## 10      10         1 <int [3]>
## # ℹ 718 more rows
…
