Obtain rules as a tidy tibble from a C5.0 model — tidyRules.C5.0 • tidyrules
…
#> 	  0.88%	DailyRate
#> 	  0.82%	NumCompaniesWorked
#> 	  0.82%	PerformanceRating
#> 	  0.61%	Gender
#> 	  0.61%	JobSatisfaction
#> 	  0.61%	RelationshipSatisfaction
#> 	  0.48%	YearsWithCurrManager
#> 	  0.34%	Age
#> 	  0.34%	EducationField
#> 
#> 
#> Time: 0.0 secs
#> 
tidyRules(c5_model)
#> # A tibble: 24 x 8
#>       id LHS             RHS   support confidence  lift rule_number trial_number
#>    <int> <chr>           <chr>   <int>      <dbl> <dbl>       <int>        <int>
#>  1     1 EnvironmentSat… No        521      0.942   1.1           1            1
#>  2     2 JobRole == 'Re… No        195      0.928   1.1           2            1
#>  3     3 TotalWorkingYe… No       1347      0.864   1             3            1
#>  4     4 JobLevel <= 1 … Yes        16      1       5.9           4            1
#>  5     5 DailyRate <= 7… Yes        13      1       5.8           5            1
#>  6     6 EnvironmentSat… Yes         9      1       5.6           6            1
#>  7     7 EnvironmentSat… Yes         9      1       5.6           7            1
#>  8     8 JobRole == 'La… Yes         6      1       5.4           8            1
#>  9     9 JobRole %in% c… Yes        14      0.929   5.4           9            1
#> 10    10 Department == … Yes        13      0.923   5.4          10            1
#> # … with 14 more rows
…
